
 ----------- Boucle numéro : 1 ---------
 Nouveau paramètre a : 49.37953893097645
 delta a : -0.6204610690235457
 Nouveau paramètre b : 0.36452048940940357
 delta b : -0.022479510590596462
 Erreur mesurée: 7.914448625724653
 -----------  ---------
 ----------- Boucle numéro : 2 ---------
 Nouveau paramètre a : 48.921575715915495
 delta a : -0.4579632150609558
 Nouveau paramètre b : 0.36440365892675114
 delta b : -0.00011683048265240537
 Erreur mesurée: 7.89208955885941
 -----------  ---------
 ----------- Boucle numéro : 3 ---------
 Nouveau paramètre a : 48.51603926115571
 delta a : -0.40553645475978345
 Nouveau paramètre b : 0.36390307090320706
 delta b : -0.0005005880235440628
 Erreur mesurée: 7.873262856035957
 -----------  ---------