
 ----------- Boucle numéro : 1 ---------
 Nouveau paramètre a : 45.75731466970543
 delta a : 0.16731466970542463
 Nouveau paramètre b : 0.387
 delta b : 0
 Erreur mesurée: 11.238082869004328
 -----------  ---------
 ----------- Boucle numéro : 2 ---------
 Nouveau paramètre a : 45.746983406960375
 delta a : -0.010331262745051433
 Nouveau paramètre b : 0.387
 delta b : 0
 Erreur mesurée: 11.238074320713665
 -----------  ---------
 ----------- Boucle numéro : 3 ---------
 Nouveau paramètre a : 45.73931915962214
 delta a : -0.007664247338232372
 Nouveau paramètre b : 0.387
 delta b : 0
 Erreur mesurée: 11.238068479240468
 -----------  ---------
 ----------- Boucle numéro : 4 ---------
 Nouveau paramètre a : 45.73526290579684
 delta a : -0.004056253825305132
 Nouveau paramètre b : 0.387
 delta b : 0
 Erreur mesurée: 11.23806541960289
 -----------  ---------
 ----------- Boucle numéro : 5 ---------
 Nouveau paramètre a : 45.734593946785566
 delta a : -0.00066895901126893
 Nouveau paramètre b : 0.387
 delta b : 0
 Erreur mesurée: 11.238065001611664
 -----------  ---------
 ----------- Boucle numéro : 6 ---------
 Nouveau paramètre a : 45.768853590750304
 delta a : 0.03425964396473721
 Nouveau paramètre b : 0.387
 delta b : 0
 Erreur mesurée: 11.238092204545385
 -----------  ---------
 ----------- Boucle numéro : 7 ---------
 Nouveau paramètre a : 45.759886125440744
 delta a : -0.008967465309560049
 Nouveau paramètre b : 0.387
 delta b : 0
 Erreur mesurée: 11.23808465551534
 -----------  ---------
 ----------- Boucle numéro : 8 ---------
 Nouveau paramètre a : 45.75182713465845
 delta a : -0.008058990782298926
 Nouveau paramètre b : 0.387
 delta b : 0
 Erreur mesurée: 11.238078142503893
 -----------  ---------
 ----------- Boucle numéro : 9 ---------
 Nouveau paramètre a : 45.74412481131781
 delta a : -0.007702323340635897
 Nouveau paramètre b : 0.387
 delta b : 0
 Erreur mesurée: 11.238072184776772
 -----------  ---------
 ----------- Boucle numéro : 10 ---------
 Nouveau paramètre a : 45.736224216445486
 delta a : -0.007900594872321493
 Nouveau paramètre b : 0.387
 delta b : 0
 Erreur mesurée: 11.2380661595553
 -----------  ---------
 ----------- Boucle numéro : 11 ---------
 Nouveau paramètre a : 45.732000961958455
 delta a : -0.004223254487031045
 Nouveau paramètre b : 0.387
 delta b : 0
 Erreur mesurée: 11.23806564532557
 -----------  ---------
 ----------- Boucle numéro : 12 ---------
 Nouveau paramètre a : 45.72470509767718
 delta a : -0.00729586428127261
 Nouveau paramètre b : 0.387
 delta b : 0
 Erreur mesurée: 11.238060270586956
 -----------  ---------
 ----------- Boucle numéro : 13 ---------
 Nouveau paramètre a : 45.717720092852566
 delta a : -0.006985004824613872
 Nouveau paramètre b : 0.387
 delta b : 0
 Erreur mesurée: 11.238055291659878
 -----------  ---------
 ----------- Boucle numéro : 14 ---------
 Nouveau paramètre a : 45.710841436598265
 delta a : -0.00687865625430307
 Nouveau paramètre b : 0.387
 delta b : 0
 Erreur mesurée: 11.238050479837659
 -----------  ---------
 ----------- Boucle numéro : 15 ---------
 Nouveau paramètre a : 45.70420079786478
 delta a : -0.006640638733488694
 Nouveau paramètre b : 0.387
 delta b : 0
 Erreur mesurée: 11.238045964382026
 -----------  ---------
 ----------- Boucle numéro : 16 ---------
 Nouveau paramètre a : 45.6978754145739
 delta a : -0.006325383290880338
 Nouveau paramètre b : 0.387
 delta b : 0
 Erreur mesurée: 11.238042058877518
 -----------  ---------
 ----------- Boucle numéro : 17 ---------
 Nouveau paramètre a : 45.691506211498584
 delta a : -0.0063692030753192234
 Nouveau paramètre b : 0.387
 delta b : 0
 Erreur mesurée: 11.23803775850332
 -----------  ---------